{
  "UserTables": [
    {
      "TableDescription": "Fluxo Aprovação",
      "TableName": "ALFA_FLUXO_APROV",
      "TableType": "bott_NoObject"
    },
    {
      "TableName": "ALFA_AUTORIZACAO",
      "TableDescription": "Regras de Autorização",
      "TableType": "bott_Document",
      "Archivable": "tNO",
      "ArchiveDateField": null
    },
    {
      "TableName": "ALFA_SUBSTIT",
      "TableDescription": "Aprovadores Substitutos",
      "TableType": "bott_MasterData",
      "Archivable": "tNO",
      "ArchiveDateField": null
    },
    {
      "TableName": "ALFA_AUTORIZACAO1",
      "TableDescription": "Linhas - Regra de Autorizacao",
      "TableType": "bott_DocumentLines",
      "Archivable": "tNO",
      "ArchiveDateField": null
    }
  ],
  "UserFields": [
    {
      "Description": "Código Usuário",
      "Name": "ALFA_UserId",
      "SubType": "st_None",
      "TableName": "@ALFA_FLUXO_APROV",
      "Type": "db_Numeric",
      "Size": 10,
      "EditSize": 10
    },
    {
      "Description": "Código Usuário Aprovador Substituto",
      "Name": "ALFA_SubstId",
      "SubType": "st_None",
      "TableName": "@ALFA_FLUXO_APROV",
      "Type": "db_Numeric",
      "Size": 10,
      "EditSize": 10
    },
    {
      "Description": "Status",
      "Name": "ALFA_Status",
      "SubType": "st_None",
      "TableName": "@ALFA_FLUXO_APROV",
      "Type": "db_Alpha",
      "Size": 1,
      "EditSize": 1
    },
    {
      "Description": "Status Email",
      "Name": "ALFA_StatusMail",
      "SubType": "st_None",
      "TableName": "@ALFA_FLUXO_APROV",
      "Type": "db_Alpha",
      "Size": 1,
      "EditSize": 1
    },
    {
      "Description": "Linha do Documento Original",
      "Name": "ALFA_LineNum",
      "SubType": "st_None",
      "TableName": "@ALFA_FLUXO_APROV",
      "Type": "db_Alpha",
      "Size": 10,
      "EditSize": 10
    },
    {
      "Description": "Data Email",
      "Name": "ALFA_DtSendMail",
      "SubType": "st_None",
      "TableName": "@ALFA_FLUXO_APROV",
      "Type": "db_Date"
    },
    {
      "Description": "Data Aprovacao",
      "Name": "ALFA_DtApprove",
      "SubType": "st_None",
      "TableName": "@ALFA_FLUXO_APROV",
      "Type": "db_Date"
    },
    {
      "Description": "Observações",
      "Name": "ALFA_Remarks",
      "SubType": "st_None",
      "TableName": "@ALFA_FLUXO_APROV",
      "Type": "db_Alpha",
      "Size": 254,
      "EditSize": 254
    },
    {
      "Description": "Etapa",
      "Name": "ALFA_Etapa",
      "SubType": "st_None",
      "TableName": "@ALFA_FLUXO_APROV",
      "Type": "db_Alpha",
      "Size": 50,
      "EditSize": 50
    },
    {
      "Description": "Codigo OWDD",
      "Name": "ALFA_OWDDCodigo",
      "SubType": "st_None",
      "TableName": "@ALFA_FLUXO_APROV",
      "Type": "db_Alpha",
      "Size": 10,
      "EditSize": 10
    },
    {
      "Description": "Hora de Aprovação",
      "Name": "ALFA_HrApprove",
      "SubType": "st_Time",
      "TableName": "@ALFA_FLUXO_APROV",
      "Type": "db_Date",
      "Size": 6,
      "EditSize": 6
    },
    {
      "Description": "Tipo do Registro",
      "Name": "ALFA_ObjType",
      "SubType": "st_None",
      "TableName": "@ALFA_FLUXO_APROV",
      "Type": "db_Alpha",
      "Size": 20,
      "EditSize": 20
    },
    {
      "Name": "ALFA_FluxoAprv",
      "Type": "db_Alpha",
      "Size": 1,
      "Description": "Fluxo de Aprovação de Registros",
      "TableName": "OWDD",
      "EditSize": 1
    },
    {
      "Name": "ALFA_ValorInicial",
      "Type": "db_Float",
      "Size": 16,
      "Description": "Valor Inicial",
      "SubType": "st_Price",
      "LinkedTable": null,
      "DefaultValue": null,
      "TableName": "@ALFA_AUTORIZACAO",
      "EditSize": 16,
      "Mandatory": "tNO",
      "LinkedUDO": null,
      "LinkedSystemObject": null,
      "ValidValuesMD": []
    },
    {
      "Name": "ALFA_ValorFinal",
      "Type": "db_Float",
      "Size": 16,
      "Description": "Valor Final",
      "SubType": "st_Price",
      "LinkedTable": null,
      "DefaultValue": null,
      "TableName": "@ALFA_AUTORIZACAO",
      "EditSize": 16,
      "Mandatory": "tNO",
      "LinkedUDO": null,
      "LinkedSystemObject": null,
      "ValidValuesMD": []
    },
    {
      "Name": "ALFA_CentroCusto",
      "Type": "db_Alpha",
      "Size": 50,
      "Description": "Centro Custos",
      "SubType": "st_None",
      "LinkedTable": null,
      "DefaultValue": null,
      "TableName": "@ALFA_AUTORIZACAO",
      "EditSize": 50,
      "Mandatory": "tNO",
      "LinkedUDO": null,
      "LinkedSystemObject": null,
      "ValidValuesMD": []
    },
    {
      "Description": "Código Usuário Aprovador",
      "Name": "ALFA_UserAprov",
      "SubType": "st_None",
      "TableName": "@ALFA_SUBSTIT",
      "Type": "db_Numeric",
      "Size": 10,
      "EditSize": 10
    },
    {
      "Description": "Código Usuário Substituto",
      "Name": "ALFA_UserSubst",
      "SubType": "st_None",
      "TableName": "@ALFA_SUBSTIT",
      "Type": "db_Numeric",
      "Size": 10,
      "EditSize": 10
    },
    {
      "Description": "Data Início",
      "Name": "ALFA_FromDate",
      "SubType": "st_None",
      "TableName": "@ALFA_SUBSTIT",
      "Type": "db_Date"
    },
    {
      "Description": "Data Final",
      "Name": "ALFA_ToDate",
      "SubType": "st_None",
      "TableName": "@ALFA_SUBSTIT",
      "Type": "db_Date"
    },
    {
      "Description": "Indica se está Ativo",
      "Name": "ALFA_Active",
      "SubType": "st_None",
      "TableName": "@ALFA_SUBSTIT",
      "Type": "db_Alpha",
      "Size": 1,
      "EditSize": 1
    },
    {
      "Description": "Usuário que fez a última Atualização",
      "Name": "ALFA_UserSubst",
      "SubType": "st_None",
      "TableName": "@ALFA_SUBSTIT",
      "Type": "db_Numeric",
      "Size": 10,
      "EditSize": 10
    },
    {
      "Description": "Observações",
      "Name": "ALFA_Remarks",
      "SubType": "st_None",
      "TableName": "@ALFA_SUBSTIT",
      "Type": "db_Alpha",
      "Size": 254,
      "EditSize": 254
    },
    {
      "Name": "ALFA_DocType",
      "Type": "db_Alpha",
      "Size": 100,
      "Description": "Tipo Documento",
      "SubType": "st_None",
      "LinkedTable": null,
      "DefaultValue": null,
      "TableName": "@ALFA_AUTORIZACAO",
      "FieldID": 5,
      "EditSize": 100,
      "Mandatory": "tNO",
      "LinkedUDO": null,
      "LinkedSystemObject": null,
      "ValidValuesMD": []
    },
    {
      "Name": "ALFA_CentroCusto",
      "Type": "db_Alpha",
      "Size": 10,
      "Description": "[ALFA] Centro de Custos",
      "SubType": "st_None",
      "LinkedTable": null,
      "DefaultValue": null,
      "TableName": "OOAT",
      "FieldID": 1,
      "EditSize": 10,
      "Mandatory": "tNO",
      "LinkedUDO": null,
      "LinkedSystemObject": null,
      "ValidValuesMD": []
    },
    {
      "Name": "ALFA_Ordem",
      "Type": "db_Numeric",
      "Size": 11,
      "Description": "Ordem Etapa",
      "SubType": "st_None",
      "LinkedTable": null,
      "DefaultValue": null,
      "TableName": "@ALFA_AUTORIZACAO1",
      "FieldID": 0,
      "EditSize": 10,
      "Mandatory": "tNO",
      "LinkedUDO": null,
      "LinkedSystemObject": null,
      "ValidValuesMD": []
    },
    {
      "Name": "ALFA_NomeEtapa",
      "Type": "db_Alpha",
      "Size": 30,
      "Description": "Nome Etapa",
      "SubType": "st_None",
      "LinkedTable": null,
      "DefaultValue": null,
      "TableName": "@ALFA_AUTORIZACAO1",
      "FieldID": 1,
      "EditSize": 30,
      "Mandatory": "tNO",
      "LinkedUDO": null,
      "LinkedSystemObject": null,
      "ValidValuesMD": []
    },
    {
      "Name": "ALFA_DescEtapa",
      "Type": "db_Alpha",
      "Size": 50,
      "Description": "Descrição Etapa",
      "SubType": "st_None",
      "LinkedTable": null,
      "DefaultValue": null,
      "TableName": "@ALFA_AUTORIZACAO1",
      "FieldID": 2,
      "EditSize": 50,
      "Mandatory": "tNO",
      "LinkedUDO": null,
      "LinkedSystemObject": null,
      "ValidValuesMD": []
    },
    {
      "Description": "Status",
      "Name": "ALFA_StatusSequencia",
      "SubType": "st_None",
      "TableName": "@ALFA_FLUXO_APROV",
      "Type": "db_Alpha",
      "Size": 1,
      "EditSize": 1
    },
    {
      "Name": "ALFA_Sequencia",
      "Type": "db_Numeric",
      "Size": 11,
      "Description": "Sequencia de Aprovação",
      "SubType": "st_None",
      "TableName": "@ALFA_FLUXO_APROV",
      "EditSize": 10,
      "Mandatory": "tNO"
    },
    {
      "odata.metadata": "https://hanab1:50000/b1s/v1/$metadata#UserFieldsMD/@Element",
      "Name": "ALFA_Name",
      "Type": "db_Alpha",
      "Size": 50,
      "Description": "Nome",
      "SubType": "st_None",
      "LinkedTable": null,
      "DefaultValue": null,
      "TableName": "@ALFA_AUTORIZACAO",
      "FieldID": 0,
      "EditSize": 50,
      "Mandatory": "tNO",
      "LinkedUDO": null,
      "LinkedSystemObject": null,
      "ValidValuesMD": []
    }
  ],
  "UserObjects": [
    {
      "odata.metadata": "https://hanab1:50000/b1s/v1/$metadata#UserObjectsMD/@Element",
      "TableName": "ALFA_AUTORIZACAO",
      "Code": "ALFA_AUTORIZACAO",
      "LogTableName": "AALFA_AUTORIZACAO",
      "CanCreateDefaultForm": "tNO",
      "ObjectType": "boud_Document",
      "ExtensionName": null,
      "CanCancel": "tNO",
      "CanDelete": "tYES",
      "CanLog": "tYES",
      "ManageSeries": "tNO",
      "CanFind": "tYES",
      "CanYearTransfer": "tNO",
      "Name": "ALFA_AUTORIZACAO",
      "CanClose": "tNO",
      "OverwriteDllfile": "tYES",
      "UseUniqueFormType": "tYES",
      "CanArchive": "tNO",
      "MenuItem": "tNO",
      "MenuCaption": "",
      "FatherMenuID": null,
      "Position": null,
      "MenuUID": null,
      "EnableEnhancedForm": "tYES",
      "RebuildEnhancedForm": "tYES",
      "FormSRF": null,
      "UserObjectMD_ChildTables": [
        {
          "SonNumber": 1,
          "TableName": "ALFA_AUTORIZACAO1",
          "LogTableName": "AALFA_AUTORIZACAO1",
          "Code": "ALFA_AUTORIZACAO",
          "ObjectName": "ALFA_AUTORIZACAO1"
        }
      ],
      "UserObjectMD_FindColumns": [
        {
          "ColumnNumber": 1,
          "ColumnAlias": "DocNum",
          "ColumnDescription": "DocNum",
          "Code": "ALFA_AUTORIZACAO"
        },
        {
          "ColumnNumber": 2,
          "ColumnAlias": "CreateDate",
          "ColumnDescription": "CreateDate",
          "Code": "ALFA_AUTORIZACAO"
        },
        {
          "ColumnNumber": 3,
          "ColumnAlias": "UpdateDate",
          "ColumnDescription": "UpdateDate",
          "Code": "ALFA_AUTORIZACAO"
        },
        {
          "ColumnNumber": 4,
          "ColumnAlias": "U_ALFA_ValorInicial",
          "ColumnDescription": "Valor Inicial",
          "Code": "ALFA_AUTORIZACAO"
        },
        {
          "ColumnNumber": 5,
          "ColumnAlias": "U_ALFA_ValorFinal",
          "ColumnDescription": "Valor Final",
          "Code": "ALFA_AUTORIZACAO"
        },
        {
          "ColumnNumber": 6,
          "ColumnAlias": "U_ALFA_CentroCusto",
          "ColumnDescription": "Centro Custos",
          "Code": "ALFA_AUTORIZACAO"
        },
        {
          "ColumnNumber": 7,
          "ColumnAlias": "U_ALFA_DocType",
          "ColumnDescription": "Tipo Documento",
          "Code": "ALFA_AUTORIZACAO"
        }
      ],
      "UserObjectMD_FormColumns": [],
      "UserObjectMD_EnhancedFormColumns": []
    },
    {
      "odata.metadata": "https://hanab1:50000/b1s/v1/$metadata#UserObjectsMD/@Element",
      "TableName": "ALFA_AUTORIZACAO",
      "Code": "ALFA_AUTORIZACAO",
      "LogTableName": "AALFA_AUTORIZACAO",
      "CanCreateDefaultForm": "tNO",
      "ObjectType": "boud_Document",
      "ExtensionName": null,
      "CanCancel": "tNO",
      "CanDelete": "tYES",
      "CanLog": "tYES",
      "ManageSeries": "tNO",
      "CanFind": "tYES",
      "CanYearTransfer": "tNO",
      "Name": "ALFA_AUTORIZACAO",
      "CanClose": "tNO",
      "OverwriteDllfile": "tYES",
      "UseUniqueFormType": "tYES",
      "CanArchive": "tNO",
      "MenuItem": "tNO",
      "MenuCaption": "",
      "FatherMenuID": null,
      "Position": null,
      "MenuUID": null,
      "EnableEnhancedForm": "tYES",
      "RebuildEnhancedForm": "tYES",
      "FormSRF": null,
      "UserObjectMD_ChildTables": [],
      "UserObjectMD_FindColumns": [
        {
          "ColumnNumber": 1,
          "ColumnAlias": "DocNum",
          "ColumnDescription": "DocNum",
          "Code": "ALFA_AUTORIZACAO"
        },
        {
          "ColumnNumber": 2,
          "ColumnAlias": "CreateDate",
          "ColumnDescription": "CreateDate",
          "Code": "ALFA_AUTORIZACAO"
        },
        {
          "ColumnNumber": 3,
          "ColumnAlias": "UpdateDate",
          "ColumnDescription": "UpdateDate",
          "Code": "ALFA_AUTORIZACAO"
        },
        {
          "ColumnNumber": 4,
          "ColumnAlias": "U_ALFA_ValorInicial",
          "ColumnDescription": "Valor Inicial",
          "Code": "ALFA_AUTORIZACAO"
        },
        {
          "ColumnNumber": 5,
          "ColumnAlias": "U_ALFA_ValorFinal",
          "ColumnDescription": "Valor Final",
          "Code": "ALFA_AUTORIZACAO"
        },
        {
          "ColumnNumber": 6,
          "ColumnAlias": "U_ALFA_CentroCusto",
          "ColumnDescription": "Centro Custos",
          "Code": "ALFA_AUTORIZACAO"
        },
        {
          "ColumnNumber": 7,
          "ColumnAlias": "U_ALFA_DocType",
          "ColumnDescription": "Tipo Documento",
          "Code": "ALFA_AUTORIZACAO"
        }
      ],
      "UserObjectMD_FormColumns": [],
      "UserObjectMD_EnhancedFormColumns": []
    },
    {
      "odata.metadata": "https://hanab1:50000/b1s/v1/$metadata#UserObjectsMD/@Element",
      "TableName": "ALFA_SUBSTIT",
      "Code": "ALFA_SUBSTIT",
      "LogTableName": "AALFA_SUBSTIT",
      "CanCreateDefaultForm": "tYES",
      "ObjectType": "boud_MasterData",
      "ExtensionName": null,
      "CanCancel": "tNO",
      "CanDelete": "tNO",
      "CanLog": "tYES",
      "ManageSeries": "tNO",
      "CanFind": "tYES",
      "CanYearTransfer": "tNO",
      "Name": "ALFA_SUBSTIT",
      "CanClose": "tNO",
      "OverwriteDllfile": "tYES",
      "UseUniqueFormType": "tYES",
      "CanArchive": "tNO",
      "MenuItem": "tNO",
      "MenuCaption": "",
      "FatherMenuID": null,
      "Position": null,
      "MenuUID": null,
      "EnableEnhancedForm": "tNO",
      "RebuildEnhancedForm": "tNO",
      "FormSRF": "<?xml version=\"1.0\" encoding=\"utf-16\"?><Application><forms><action type=\"add\"><form appformnumber=\"-1\" FormType=\"UDO_FT_ALFA_SUBSTIT\" type=\"0\" BorderStyle=\"0\" uid=\"UDO_F_ALFA_SUBSTIT\" title=\"ALFA_SUBSTIT\" visible=\"1\" default_button=\"\" mode=\"3\" pane=\"1\" color=\"0\" left=\"370\" top=\"127\" width=\"600\" height=\"180\" AutoManaged=\"1\" SupportedModes=\"15\" ObjectType=\"ALFA_SUBSTIT\"><datasources><dbdatasources><action type=\"add\"><datasource tablename=\"@ALFA_SUBSTIT\" /></action></dbdatasources><userdatasources><action type=\"add\"><datasource uid=\"FolderDS\" type=\"9\" size=\"10\" /></action></userdatasources></datasources><Menus /><items><action type=\"add\"><item uid=\"0_U_S\" type=\"8\" left=\"6\" tab_order=\"0\" width=\"121\" top=\"6\" height=\"14\" visible=\"1\" enabled=\"1\" from_pane=\"0\" to_pane=\"0\" disp_desc=\"\" right_just=\"0\" description=\"Code\" linkto=\"0_U_E\" forecolor=\"-1\" backcolor=\"-1\" text_style=\"0\" font_size=\"-1\" supp_zeros=\"0\" AffectsFormMode=\"1\" IsAutoGenerated=\"1\"><AutoManagedAttribute /><specific caption=\"Code\" /></item><item uid=\"0_U_E\" type=\"16\" left=\"127\" tab_order=\"0\" width=\"148\" top=\"6\" height=\"14\" visible=\"1\" from_pane=\"0\" to_pane=\"0\" disp_desc=\"\" right_just=\"0\" description=\"Code\" linkto=\"\" forecolor=\"-1\" backcolor=\"-1\" text_style=\"0\" font_size=\"-1\" supp_zeros=\"0\" AffectsFormMode=\"1\" IsAutoGenerated=\"1\"><AutoManagedAttribute /><specific TabOrder=\"0\"><databind databound=\"1\" table=\"@ALFA_SUBSTIT\" alias=\"Code\" /></specific></item><item uid=\"13_U_S\" type=\"8\" left=\"306\" tab_order=\"0\" width=\"121\" top=\"6\" height=\"14\" visible=\"1\" enabled=\"1\" from_pane=\"0\" to_pane=\"0\" disp_desc=\"\" right_just=\"0\" description=\"Código Usuário Aprovador\" linkto=\"13_U_E\" forecolor=\"-1\" backcolor=\"-1\" text_style=\"0\" font_size=\"-1\" supp_zeros=\"0\" AffectsFormMode=\"1\" IsAutoGenerated=\"1\"><AutoManagedAttribute /><specific caption=\"Código Usuário Aprovador\" /></item><item uid=\"13_U_E\" type=\"16\" left=\"427\" tab_order=\"0\" width=\"148\" top=\"6\" height=\"14\" visible=\"1\" from_pane=\"0\" to_pane=\"0\" disp_desc=\"\" right_just=\"0\" description=\"Código Usuário Aprovador\" linkto=\"\" forecolor=\"-1\" backcolor=\"-1\" text_style=\"0\" font_size=\"-1\" supp_zeros=\"0\" AffectsFormMode=\"1\" IsAutoGenerated=\"1\"><AutoManagedAttribute /><specific TabOrder=\"1\"><databind databound=\"1\" table=\"@ALFA_SUBSTIT\" alias=\"U_ALFA_UserAprov\" /></specific></item><item uid=\"14_U_S\" type=\"8\" left=\"6\" tab_order=\"0\" width=\"121\" top=\"21\" height=\"14\" visible=\"1\" enabled=\"1\" from_pane=\"0\" to_pane=\"0\" disp_desc=\"\" right_just=\"0\" description=\"Código Usuário Substituto\" linkto=\"14_U_E\" forecolor=\"-1\" backcolor=\"-1\" text_style=\"0\" font_size=\"-1\" supp_zeros=\"0\" AffectsFormMode=\"1\" IsAutoGenerated=\"1\"><AutoManagedAttribute /><specific caption=\"Código Usuário Substituto\" /></item><item uid=\"14_U_E\" type=\"16\" left=\"127\" tab_order=\"0\" width=\"148\" top=\"21\" height=\"14\" visible=\"1\" from_pane=\"0\" to_pane=\"0\" disp_desc=\"\" right_just=\"0\" description=\"Código Usuário Substituto\" linkto=\"\" forecolor=\"-1\" backcolor=\"-1\" text_style=\"0\" font_size=\"-1\" supp_zeros=\"0\" AffectsFormMode=\"1\" IsAutoGenerated=\"1\"><AutoManagedAttribute /><specific TabOrder=\"2\"><databind databound=\"1\" table=\"@ALFA_SUBSTIT\" alias=\"U_ALFA_UserSubst\" /></specific></item><item uid=\"15_U_S\" type=\"8\" left=\"306\" tab_order=\"0\" width=\"121\" top=\"21\" height=\"14\" visible=\"1\" enabled=\"1\" from_pane=\"0\" to_pane=\"0\" disp_desc=\"\" right_just=\"0\" description=\"Data Início\" linkto=\"15_U_E\" forecolor=\"-1\" backcolor=\"-1\" text_style=\"0\" font_size=\"-1\" supp_zeros=\"0\" AffectsFormMode=\"1\" IsAutoGenerated=\"1\"><AutoManagedAttribute /><specific caption=\"Data Início\" /></item><item uid=\"15_U_E\" type=\"16\" left=\"427\" tab_order=\"0\" width=\"148\" top=\"21\" height=\"14\" visible=\"1\" from_pane=\"0\" to_pane=\"0\" disp_desc=\"\" right_just=\"0\" description=\"Data Início\" linkto=\"\" forecolor=\"-1\" backcolor=\"-1\" text_style=\"0\" font_size=\"-1\" supp_zeros=\"0\" AffectsFormMode=\"1\" IsAutoGenerated=\"1\"><AutoManagedAttribute /><specific TabOrder=\"3\"><databind databound=\"1\" table=\"@ALFA_SUBSTIT\" alias=\"U_ALFA_FromDate\" /></specific></item><item uid=\"16_U_S\" type=\"8\" left=\"6\" tab_order=\"0\" width=\"121\" top=\"36\" height=\"14\" visible=\"1\" enabled=\"1\" from_pane=\"0\" to_pane=\"0\" disp_desc=\"\" right_just=\"0\" description=\"Data Final\" linkto=\"16_U_E\" forecolor=\"-1\" backcolor=\"-1\" text_style=\"0\" font_size=\"-1\" supp_zeros=\"0\" AffectsFormMode=\"1\" IsAutoGenerated=\"1\"><AutoManagedAttribute /><specific caption=\"Data Final\" /></item><item uid=\"16_U_E\" type=\"16\" left=\"127\" tab_order=\"0\" width=\"148\" top=\"36\" height=\"14\" visible=\"1\" from_pane=\"0\" to_pane=\"0\" disp_desc=\"\" right_just=\"0\" description=\"Data Final\" linkto=\"\" forecolor=\"-1\" backcolor=\"-1\" text_style=\"0\" font_size=\"-1\" supp_zeros=\"0\" AffectsFormMode=\"1\" IsAutoGenerated=\"1\"><AutoManagedAttribute /><specific TabOrder=\"4\"><databind databound=\"1\" table=\"@ALFA_SUBSTIT\" alias=\"U_ALFA_ToDate\" /></specific></item><item uid=\"17_U_S\" type=\"8\" left=\"306\" tab_order=\"0\" width=\"121\" top=\"36\" height=\"14\" visible=\"1\" enabled=\"1\" from_pane=\"0\" to_pane=\"0\" disp_desc=\"\" right_just=\"0\" description=\"Indica se está Ativo\" linkto=\"17_U_E\" forecolor=\"-1\" backcolor=\"-1\" text_style=\"0\" font_size=\"-1\" supp_zeros=\"0\" AffectsFormMode=\"1\" IsAutoGenerated=\"1\"><AutoManagedAttribute /><specific caption=\"Indica se está Ativo\" /></item><item uid=\"17_U_E\" type=\"16\" left=\"427\" tab_order=\"0\" width=\"148\" top=\"36\" height=\"14\" visible=\"1\" from_pane=\"0\" to_pane=\"0\" disp_desc=\"\" right_just=\"0\" description=\"Indica se está Ativo\" linkto=\"\" forecolor=\"-1\" backcolor=\"-1\" text_style=\"0\" font_size=\"-1\" supp_zeros=\"0\" AffectsFormMode=\"1\" IsAutoGenerated=\"1\"><AutoManagedAttribute /><specific TabOrder=\"5\"><databind databound=\"1\" table=\"@ALFA_SUBSTIT\" alias=\"U_ALFA_Active\" /></specific></item><item uid=\"18_U_S\" type=\"8\" left=\"6\" tab_order=\"0\" width=\"121\" top=\"51\" height=\"14\" visible=\"1\" enabled=\"1\" from_pane=\"0\" to_pane=\"0\" disp_desc=\"\" right_just=\"0\" description=\"Observações\" linkto=\"18_U_E\" forecolor=\"-1\" backcolor=\"-1\" text_style=\"0\" font_size=\"-1\" supp_zeros=\"0\" AffectsFormMode=\"1\" IsAutoGenerated=\"1\"><AutoManagedAttribute /><specific caption=\"Observações\" /></item><item uid=\"18_U_E\" type=\"16\" left=\"127\" tab_order=\"0\" width=\"148\" top=\"51\" height=\"14\" visible=\"1\" from_pane=\"0\" to_pane=\"0\" disp_desc=\"\" right_just=\"0\" description=\"Observações\" linkto=\"\" forecolor=\"-1\" backcolor=\"-1\" text_style=\"0\" font_size=\"-1\" supp_zeros=\"0\" AffectsFormMode=\"1\" IsAutoGenerated=\"1\"><AutoManagedAttribute /><specific TabOrder=\"6\"><databind databound=\"1\" table=\"@ALFA_SUBSTIT\" alias=\"U_ALFA_Remarks\" /></specific></item><item uid=\"1\" type=\"4\" left=\"6\" tab_order=\"\" width=\"65\" top=\"120\" height=\"19\" visible=\"1\" enabled=\"1\" from_pane=\"0\" to_pane=\"0\" disp_desc=\"\" right_just=\"0\" linkto=\"\" forecolor=\"-1\" backcolor=\"-1\" text_style=\"0\" font_size=\"-1\" supp_zeros=\"0\" AffectsFormMode=\"1\" IsAutoGenerated=\"1\"><AutoManagedAttribute /><specific caption=\"OK\" /></item><item uid=\"2\" type=\"4\" left=\"76\" tab_order=\"\" width=\"65\" top=\"120\" height=\"19\" visible=\"1\" enabled=\"1\" from_pane=\"0\" to_pane=\"0\" disp_desc=\"\" right_just=\"0\" linkto=\"\" forecolor=\"-1\" backcolor=\"-1\" text_style=\"0\" font_size=\"-1\" supp_zeros=\"0\" AffectsFormMode=\"1\" IsAutoGenerated=\"1\"><AutoManagedAttribute /><specific caption=\"Cancelar\" /></item></action></items><ChooseFromListCollection /><DataBrowser BrowseBy=\"0_U_E\" /><Settings Enabled=\"1\" EnableRowFormat=\"1\" /></form></action></forms></Application>",
      "UserObjectMD_ChildTables": [],
      "UserObjectMD_FindColumns": [
        {
          "ColumnNumber": 1,
          "ColumnAlias": "Code",
          "ColumnDescription": "Code",
          "Code": "ALFA_SUBSTIT"
        },
        {
          "ColumnNumber": 2,
          "ColumnAlias": "Name",
          "ColumnDescription": "Name",
          "Code": "ALFA_SUBSTIT"
        },
        {
          "ColumnNumber": 3,
          "ColumnAlias": "U_ALFA_UserAprov",
          "ColumnDescription": "Código Usuário Aprovador",
          "Code": "ALFA_SUBSTIT"
        },
        {
          "ColumnNumber": 4,
          "ColumnAlias": "U_ALFA_UserSubst",
          "ColumnDescription": "Código Usuário Substituto",
          "Code": "ALFA_SUBSTIT"
        },
        {
          "ColumnNumber": 5,
          "ColumnAlias": "U_ALFA_FromDate",
          "ColumnDescription": "Data Início",
          "Code": "ALFA_SUBSTIT"
        },
        {
          "ColumnNumber": 6,
          "ColumnAlias": "U_ALFA_ToDate",
          "ColumnDescription": "Data Final",
          "Code": "ALFA_SUBSTIT"
        },
        {
          "ColumnNumber": 7,
          "ColumnAlias": "U_ALFA_Active",
          "ColumnDescription": "Indica se está Ativo",
          "Code": "ALFA_SUBSTIT"
        },
        {
          "ColumnNumber": 8,
          "ColumnAlias": "U_ALFA_Remarks",
          "ColumnDescription": "Observações",
          "Code": "ALFA_SUBSTIT"
        }
      ],
      "UserObjectMD_FormColumns": [
        {
          "FormColumnAlias": "Code",
          "FormColumnDescription": "Code",
          "FormColumnNumber": 1,
          "SonNumber": 0,
          "Code": "ALFA_SUBSTIT",
          "Editable": "tYES"
        },
        {
          "FormColumnAlias": "U_ALFA_UserAprov",
          "FormColumnDescription": "Código Usuário Aprovador",
          "FormColumnNumber": 2,
          "SonNumber": 0,
          "Code": "ALFA_SUBSTIT",
          "Editable": "tYES"
        },
        {
          "FormColumnAlias": "U_ALFA_UserSubst",
          "FormColumnDescription": "Código Usuário Substituto",
          "FormColumnNumber": 3,
          "SonNumber": 0,
          "Code": "ALFA_SUBSTIT",
          "Editable": "tYES"
        },
        {
          "FormColumnAlias": "U_ALFA_FromDate",
          "FormColumnDescription": "Data Início",
          "FormColumnNumber": 4,
          "SonNumber": 0,
          "Code": "ALFA_SUBSTIT",
          "Editable": "tYES"
        },
        {
          "FormColumnAlias": "U_ALFA_ToDate",
          "FormColumnDescription": "Data Final",
          "FormColumnNumber": 5,
          "SonNumber": 0,
          "Code": "ALFA_SUBSTIT",
          "Editable": "tYES"
        },
        {
          "FormColumnAlias": "U_ALFA_Active",
          "FormColumnDescription": "Indica se está Ativo",
          "FormColumnNumber": 6,
          "SonNumber": 0,
          "Code": "ALFA_SUBSTIT",
          "Editable": "tYES"
        },
        {
          "FormColumnAlias": "U_ALFA_Remarks",
          "FormColumnDescription": "Observações",
          "FormColumnNumber": 7,
          "SonNumber": 0,
          "Code": "ALFA_SUBSTIT",
          "Editable": "tYES"
        }
      ],
      "UserObjectMD_EnhancedFormColumns": []
    }
  ]
}